Nitinat escapement 2025 (PRELIM)
…
The mark rate of adult Coho by gear type was:

## # A tibble: 3 × 5
## # Groups:   capture_method [3]
##   capture_method                  total Unchecked External M…¹ Clipped Unclipped
##   <chr>                           <dbl>                  <dbl>   <dbl>     <dbl>
## 1 2025 NT Coho Lake - Gillnet        39                      1   NA        NA   
## 2 2025 NT Coho Lake - Seine, pur…    70                     NA    0.76      0.24
## 3 2025 NT Coho Swim In - Pescala…  1314                     NA    0.92      0.08
## # ℹ abbreviated name: ¹​`Unchecked External Mark`

3.5.1 Historical mark rate

## # A tibble: 33 × 6
## # Groups:   year, paste0(capture_type, " - ", capture_method) [18]
##     year paste0(capture_type, " - ", captu…¹ external_mark     n mark_rate total
##    <dbl> <chr>                               <chr>         <int>     <dbl> <int>
##  1  2020 Fishing Event - Seine, beach        Clipped          26      0.07   361
##  2  2020 Fishing Event - Seine, beach        Unchecked Ex…   140      0.39   361
##  3  2020 Fishing Event - Seine, beach        Unclipped       195      0.54   361
##  4  2020 Swim-In - Brailer                   Clipped         339      0.79   429
##  5  2020 Swim-In - Brailer                   Unclipped        90      0.21   429
##  6  2021 Fishing Event - Seine, beach        Clipped          27      0.16   169
##  7  2021 Fishing Event - Seine, beach        Unchecked Ex…   108      0.64   169
##  8  2021 Fishing Event - Seine, beach        Unclipped        34      0.2    169
##  9  2021 Swim-In - Brailer                   Clipped         585      0.98   598
## 10  2021 Swim-In - Brailer                   Unclipped        13      0.02   598
## # ℹ 23 more rows
## # ℹ abbreviated name: ¹​`paste0(capture_type, " - ", capture_method)`
…
